Using R to Analyse and Visualize Data - A Hands-on Workshop
…
Visualisation

Lets load our package

library(tidyverse)

A package only needs to be installed once (per major version, e.g.3.5.x to 3.6.x), but must be loaded every time.

The mpg data set

Data on the fuel efficiency of 38 models of cars between 1999 and 2008 from the US EPA:

mpg

## # A tibble: 234 x 11
##    manufacturer model      displ  year   cyl trans drv     cty   hwy fl    class
##    <chr>        <chr>      <dbl> <int> <int> <chr> <chr> <int> <int> <chr> <chr>
##  1 audi         a4           1.8  1999     4 auto~ f        18    29 p     comp~
##  2 audi         a4           1.8  1999     4 manu~ f        21    29 p     comp~
##  3 audi         a4           2    2008     4 manu~ f        20    31 p     comp~
##  4 audi         a4           2    2008     4 auto~ f        21    30 p     comp~
##  5 audi         a4           2.8  1999     6 auto~ f        16    26 p     comp~
##  6 audi         a4           2.8  1999     6 manu~ f        18    26 p     comp~
##  7 audi         a4           3.1  2008     6 auto~ f        18    27 p     comp~
##  8 audi         a4 quattro   1.8  1999     4 manu~ 4        18    26 p     comp~
##  9 audi         a4 quattro   1.8  1999     4 auto~ 4        16    25 p     comp~
## 10 audi         a4 quattro   2    2008     4 manu~ 4        20    28 p     comp~
## # ... with 224 more rows
…
## 
## i Use `spec()` to retrieve the full column specification for this data.
## i Specify the column types or set `show_col_types = FALSE` to quiet this message.

The read_csv() function tells us that it guessed the types of the various columns. In this situation, the default guesses are fine, but of course we can force it to treat columns certain ways if we wish.

What does the data look like?

revenue_raw

## # A tibble: 114,600 x 8
##    Ref_Date  GEO    SCHOOL         REVENUE   FUND       Vector Coordinate  Value
##    <chr>     <chr>  <chr>          <chr>     <chr>      <chr>  <chr>       <dbl>
##  1 2000/2001 Canada Total univers~ Total re~ Total fun~ v8070~ 1.1.1.1    1.62e7
##  2 2001/2002 Canada Total univers~ Total re~ Total fun~ v8070~ 1.1.1.1    1.72e7
##  3 2002/2003 Canada Total univers~ Total re~ Total fun~ v8070~ 1.1.1.1    1.85e7
##  4 2003/2004 Canada Total univers~ Total re~ Total fun~ v8070~ 1.1.1.1    2.16e7
##  5 2004/2005 Canada Total univers~ Total re~ Total fun~ v8070~ 1.1.1.1    2.27e7
##  6 2005/2006 Canada Total univers~ Total re~ Total fun~ v8070~ 1.1.1.1    2.47e7
##  7 2006/2007 Canada Total univers~ Total re~ Total fun~ v8070~ 1.1.1.1    2.65e7
##  8 2007/2008 Canada Total univers~ Total re~ Total fun~ v8070~ 1.1.1.1    2.72e7
##  9 2008/2009 Canada Total univers~ Total re~ Total fun~ v8070~ 1.1.1.1    2.64e7
## 10 2009/2010 Canada Total univers~ Total re~ Total fun~ v8070~ 1.1.1.1    3.19e7
## # ... with 114,590 more rows
…
https://www.rstudio.com/resources/cheatsheets/

(or Help | Cheatsheets in RStudio!)

filter() the rows we want

filter(revenue_raw, 
       SCHOOL == 'Total universities and colleges', 
       FUND == 'Total funds (x 1,000)')

## # A tibble: 5,280 x 8
##    Ref_Date  GEO    SCHOOL         REVENUE   FUND       Vector Coordinate  Value
##    <chr>     <chr>  <chr>          <chr>     <chr>      <chr>  <chr>       <dbl>
##  1 2000/2001 Canada Total univers~ Total re~ Total fun~ v8070~ 1.1.1.1    1.62e7
##  2 2001/2002 Canada Total univers~ Total re~ Total fun~ v8070~ 1.1.1.1    1.72e7
##  3 2002/2003 Canada Total univers~ Total re~ Total fun~ v8070~ 1.1.1.1    1.85e7
##  4 2003/2004 Canada Total univers~ Total re~ Total fun~ v8070~ 1.1.1.1    2.16e7
##  5 2004/2005 Canada Total univers~ Total re~ Total fun~ v8070~ 1.1.1.1    2.27e7
##  6 2005/2006 Canada Total univers~ Total re~ Total fun~ v8070~ 1.1.1.1    2.47e7
##  7 2006/2007 Canada Total univers~ Total re~ Total fun~ v8070~ 1.1.1.1    2.65e7
##  8 2007/2008 Canada Total univers~ Total re~ Total fun~ v8070~ 1.1.1.1    2.72e7
##  9 2008/2009 Canada Total univers~ Total re~ Total fun~ v8070~ 1.1.1.1    2.64e7
## 10 2009/2010 Canada Total univers~ Total re~ Total fun~ v8070~ 1.1.1.1    3.19e7
## # ... with 5,270 more rows
…
Complete set of boolean operations. x is the left-hand circle, y is the right-hand circle, and the shaded regions show which parts each operator selects.

filter()

In other words, the previous command is equivalent to this:

filter(revenue_raw, 
       SCHOOL == 'Total universities and colleges' & 
         FUND == 'Total funds (x 1,000)')

## # A tibble: 5,280 x 8
##    Ref_Date  GEO    SCHOOL         REVENUE   FUND       Vector Coordinate  Value
##    <chr>     <chr>  <chr>          <chr>     <chr>      <chr>  <chr>       <dbl>
##  1 2000/2001 Canada Total univers~ Total re~ Total fun~ v8070~ 1.1.1.1    1.62e7
##  2 2001/2002 Canada Total univers~ Total re~ Total fun~ v8070~ 1.1.1.1    1.72e7
##  3 2002/2003 Canada Total univers~ Total re~ Total fun~ v8070~ 1.1.1.1    1.85e7
##  4 2003/2004 Canada Total univers~ Total re~ Total fun~ v8070~ 1.1.1.1    2.16e7
##  5 2004/2005 Canada Total univers~ Total re~ Total fun~ v8070~ 1.1.1.1    2.27e7
##  6 2005/2006 Canada Total univers~ Total re~ Total fun~ v8070~ 1.1.1.1    2.47e7
##  7 2006/2007 Canada Total univers~ Total re~ Total fun~ v8070~ 1.1.1.1    2.65e7
##  8 2007/2008 Canada Total univers~ Total re~ Total fun~ v8070~ 1.1.1.1    2.72e7
##  9 2008/2009 Canada Total univers~ Total re~ Total fun~ v8070~ 1.1.1.1    2.64e7
## 10 2009/2010 Canada Total univers~ Total re~ Total fun~ v8070~ 1.1.1.1    3.19e7
## # ... with 5,270 more rows
…
https://www.rstudio.com/resources/cheatsheets/ (Data Import Cheatsheet)

pivot_wider() CANSIM

revenue <- revenue_long %>% 
  pivot_wider(names_from = REVENUE, values_from = Value)

revenue

## # A tibble: 165 x 34
##    Ref_Date GEO    `Total revenues` Federal `Social Sciences an~ `Health Canada`
##       <int> <chr>             <dbl>   <dbl>                <dbl>           <dbl>
##  1     2000 Canada         16224715 1554234               104306           41527
##  2     2001 Canada         17231250 1846138               109511           34669
##  3     2002 Canada         18488133 2223239               133368           43599
##  4     2003 Canada         21647925 2534964               178803           30157
##  5     2004 Canada         22687437 2635758               203082           30426
##  6     2005 Canada         24705347 2833294               221604           37168
##  7     2006 Canada         26458623 2874651               222010           42011
##  8     2007 Canada         27201804 3060336               220779           57051
##  9     2008 Canada         26405228 3075585               236172           36454
## 10     2009 Canada         31929458 3752740               250356           52515
## # ... with 155 more rows, and 28 more variables:
## #   Natural Sciences and Engineering Research Council <dbl>,
## #   Canadian Institute of Health Research <dbl>,
## #   Canada Foundation for Innovation <dbl>, Canada Research Chairs <dbl>,
## #   Other federal <dbl>, Non-federal <dbl>, Provincial <dbl>, Municipal <dbl>,
## #   Other provinces <dbl>, Foreign <dbl>, Tuition and other fees <dbl>,
## #   Credit courses tuiton <dbl>, Non-credit tution <dbl>, Other fees <dbl>, ...
…
Create a new variable

revenue %>% 
  select(Ref_Date, GEO, `Tuition and other fees`, `Total revenues`) %>% 
  mutate(tuition_share = `Tuition and other fees` / `Total revenues`)

## # A tibble: 165 x 5
##    Ref_Date GEO    `Tuition and other fees` `Total revenues` tuition_share
##       <int> <chr>                     <dbl>            <dbl>         <dbl>
##  1     2000 Canada                  3052960         16224715         0.188
##  2     2001 Canada                  3319524         17231250         0.193
##  3     2002 Canada                  3777453         18488133         0.204
##  4     2003 Canada                  4358013         21647925         0.201
##  5     2004 Canada                  4706894         22687437         0.207
##  6     2005 Canada                  4943699         24705347         0.200
##  7     2006 Canada                  5216088         26458623         0.197
##  8     2007 Canada                  5454375         27201804         0.201
##  9     2008 Canada                  5853354         26405228         0.222
## 10     2009 Canada                  6482539         31929458         0.203
## # ... with 155 more rows
…
Add residuals

Add residuals. We need to use the original dataset.

sim1 <- sim1 %>%
  add_residuals(sim1_mod)
sim1

## # A tibble: 30 x 3
##        x     y    resid
##    <int> <dbl>    <dbl>
##  1     1  4.20 -2.07   
##  2     1  7.51  1.24   
##  3     1  2.13 -4.15   
##  4     2  8.99  0.665  
##  5     2 10.2   1.92   
##  6     2 11.3   2.97   
##  7     3  7.36 -3.02   
##  8     3 10.5   0.130  
##  9     3 10.5   0.136  
## 10     4 12.4   0.00763
## # ... with 20 more rows
…
